<?xml version="1.0" encoding="utf-8"?>
<!-- Generator: Adobe Illustrator 19.0.0, SVG Export Plug-In . SVG Version: 6.00 Build 0)  -->
<svg version="1.1" id="Layer_1" xmlns="http://www.w3.org/2000/svg" xmlns:xlink="http://www.w3.org/1999/xlink" x="0px" y="0px"
	 viewBox="-49 141 512 512" style="enable-background:new -49 141 512 512;" xml:space="preserve">
<style type="text/css">
	.st0{fill:#4C6D71;}
</style>
<path id="newspaper-3-icon" class="st0" d="M236.8,332.5l-10.5-44.1h11.5l5.5,30.6l6.1-30.6h11.2l5.4,30l5.7-30h11l-11.4,44.1h-11.4
	l-5.4-29.2l-6.2,29.2H236.8z M223.6,323.5h-17.7v-9.2h15.9v-8.9h-15.9v-8h16.8v-9h-27.6v44.1h28.5L223.6,323.5L223.6,323.5z
	 M291.5,411.1h64.8v-20h-64.8V411.1z M297.7,324.1c-3.4,0-7.4-1-10.6-2.6l-0.6-0.3l-2.2,9l0.3,0.2c2.3,1.3,7.2,2.7,12.5,2.7
	c13.2,0,17.9-7.5,17.9-13.9c0-6.2-3.7-10.4-11.5-13.3c-5.8-2.2-7.7-3.3-7.7-5.6c0-2.2,2.3-3.7,5.8-3.7c3.1,0,6.1,0.7,8.8,2l0.5,0.3
	l2.4-8.9l-0.4-0.2c-3.3-1.5-7-2.2-11.2-2.2c-10.1,0-16.8,5.4-16.8,13.5c0,6,4.1,10.4,12.2,13.2c5.2,1.8,6.9,3.3,6.9,5.6
	C304,322.6,301.7,324.1,297.7,324.1z M291.5,449.1h64.8v-20h-64.8V449.1z M160.9,302.3l15.7,30.2h11v-44.1h-10v27.1l-14.6-27.1H151
	v44.1h10V302.3z M271.7,449.1v-58h-78.3v58H271.7z M413,235l0,289.3c0,19.2-15.5,34.7-34.7,34.7H35.7C16.5,559,1,543.5,1,524.3
	L1,265h30.4v245.9c0,13.2,20,13.2,20,0V235H413z M383,265H81v248H383L383,265L383,265z M356.3,353.7H108.7v20h247.7V353.7z
	 M356.3,467.1H108.7v20h247.7V467.1z M174.5,429.1h-65.8v20h65.8V429.1z M174.5,391.1h-65.8v20h65.8V391.1z"/>
</svg>
